<?xml version="1.0" encoding="utf-8"?>
<!-- Generator: Adobe Illustrator 19.1.0, SVG Export Plug-In . SVG Version: 6.00 Build 0)  -->
<svg version="1.2" baseProfile="tiny" id="Layer_1" xmlns="http://www.w3.org/2000/svg" xmlns:xlink="http://www.w3.org/1999/xlink"
	 x="0px" y="0px" viewBox="0 0 30 30" xml:space="preserve">
<g>
	<g>
		<circle fill="none" stroke="#4F868E" stroke-miterlimit="10" cx="15" cy="15" r="8"/>
	</g>
	<g>
		<path fill="#4F868E" d="M16.2,19.1l-0.1,0.4c-0.4,0.2-0.7,0.3-0.9,0.3c-0.2,0.1-0.4,0.1-0.6,0.1c-0.3,0-0.6-0.1-0.8-0.3
			c-0.2-0.2-0.3-0.4-0.3-0.6c0-0.1,0-0.2,0-0.3c0-0.1,0-0.2,0.1-0.4l0.7-2.7c0-0.1,0.1-0.3,0.1-0.5c0-0.2,0-0.3,0-0.4
			c0-0.2,0-0.4-0.1-0.5s-0.2-0.1-0.5-0.1c-0.1,0-0.2,0-0.4,0c-0.2,0-0.3,0.1-0.3,0.1l0.1-0.4c0.3-0.1,0.6-0.3,0.9-0.3
			c0.3-0.1,0.5-0.1,0.6-0.1c0.3,0,0.6,0.1,0.7,0.2c0.2,0.2,0.2,0.4,0.2,0.7c0,0.1,0,0.2,0,0.3c0,0.1,0,0.3-0.1,0.4L15,17.7
			c0,0.2-0.1,0.3-0.1,0.5c0,0.2,0,0.3,0,0.4c0,0.2,0.1,0.4,0.2,0.5c0.1,0.1,0.3,0.1,0.5,0.1c0.1,0,0.2,0,0.3,0
			C16,19.2,16.1,19.2,16.2,19.1z M16.6,11.1c0,0.2-0.1,0.4-0.2,0.6C16.2,11.9,16,12,15.8,12c-0.2,0-0.4-0.1-0.6-0.3
			c-0.2-0.2-0.2-0.4-0.2-0.6c0-0.2,0.1-0.4,0.2-0.6c0.2-0.2,0.3-0.3,0.6-0.3c0.2,0,0.4,0.1,0.6,0.2C16.5,10.7,16.6,10.9,16.6,11.1z"
			/>
	</g>
</g>
</svg>
