<?xml version="1.0" encoding="utf-8"?>
<!-- Generator: Adobe Illustrator 19.1.0, SVG Export Plug-In . SVG Version: 6.00 Build 0)  -->
<svg version="1.2" baseProfile="tiny" id="Layer_1" xmlns="http://www.w3.org/2000/svg" xmlns:xlink="http://www.w3.org/1999/xlink"
	 x="0px" y="0px" viewBox="0 0 30 30" xml:space="preserve">
<g id="XMLID_12_">
	<path fill="none" stroke="#A20067" stroke-miterlimit="10" d="M18.7,17.6c-1.7-0.4-1.6-1.4-1.8-2.1c0-1,1.8-2.1,1.8-3.7
		c0-2-1.6-3.7-3.7-3.7s-3.7,1.6-3.7,3.7c0,1.5,1.6,2.6,1.8,3.7c0,0.7,0.2,1.7-1.8,2.1c-3.8,0.7-3.9,4.2-3.9,4.2h15.1
		C22.5,21.8,22.5,18.5,18.7,17.6z"/>
</g>
</svg>
