<?xml version="1.0" encoding="utf-8"?>
<!-- Generator: Adobe Illustrator 18.0.0, SVG Export Plug-In . SVG Version: 6.00 Build 0)  -->
<!DOCTYPE svg PUBLIC "-//W3C//DTD SVG 1.1//EN" "http://www.w3.org/Graphics/SVG/1.1/DTD/svg11.dtd">
<svg version="1.1" id="Layer_1" xmlns="http://www.w3.org/2000/svg" xmlns:xlink="http://www.w3.org/1999/xlink" x="0px" y="0px"
	 viewBox="0 0 811 355" enable-background="new 0 0 811 355" xml:space="preserve">
<g>
	<g>
		<polygon points="38.5,13.6 46.3,13.6 57.4,43.9 57.4,43.9 67.6,13.6 75.4,13.6 75.4,68.4 67.6,68.4 67.6,34.1 67.2,34.1 59,59 
			54.9,59 46.7,34.1 46.3,34.1 46.3,68.4 38.5,68.4 		"/>
		<path d="M93.4,13.6l7.4,27h0.4c0.4-2.9,1.2-8.2,2-11.1l3.3-15.6h8.2l-9.4,37.2c-1.6,6.1-2.5,13.1-7.4,16c-2.5,1.2-4.5,1.6-6.5,1.6
			h-2.9v-7.8h2c1.6,0,2.9-0.4,3.7-1.2c0.8-0.8,1.2-2.5,1.6-3.3l0.8-4.5L84.4,14h9V13.6z"/>
		<path d="M122,24.2c0-2,0.4-6.1,4.1-8.6c1.6-1.2,4.5-2.9,8.6-2.9c3.3,0,6.5,0.8,9,2.5c1.2,0.8,4.5,3.7,4.5,9v4.5
			c0,2.9,0,6.1-2.5,8.6c-0.8,0.8-2,2-3.3,2.5c2.5,1.2,3.3,2.5,4.1,3.3c1.2,2.5,1.6,4.5,1.6,7v6.5c0,2.9-0.4,6.1-3.3,9
			c-2.9,2.9-6.5,3.3-9.8,3.3c-2.9,0-6.5-0.4-9.4-2.9c-0.4-0.4-3.3-3.3-3.3-7.8v-4.9h7.8v3.3c0,1.2,0.4,2.9,1.2,3.7
			c0.8,0.8,2.9,1.2,4.1,1.2c2,0,3.3-0.4,3.7-1.2c1.2-1.2,1.2-2.9,1.2-4.5v-4.9c0-1.6,0-4.5-2-6.1c-0.4-0.4-1.6-1.2-4.1-1.2h-2.5v-7
			h2c2,0,4.1-0.8,4.9-2c1.2-1.6,1.6-3.7,1.6-4.9v-3.7c0-1.2,0-2.9-1.6-4.5c-0.8-0.8-2-1.2-3.7-1.2s-2.9,0.4-3.7,1.2
			c-1.2,1.2-1.6,2.9-1.6,4.1v3.3H122C122,28.7,122,24.2,122,24.2z"/>
		<polygon points="159.7,13.6 183,13.6 183,21 167.5,21 167.5,37.3 181,37.3 181,44.3 167.5,44.3 167.5,61.1 183,61.1 183,68.4 
			159.7,68.4 		"/>
		<path d="M201.8,13.6v33.6l13.1-27.4v-6.1h7.8v54.8h-7.8V34.9l-13.1,27.4v6.1h-7.8V13.6H201.8z M217.8,1.3c0,3.3-1.2,5.3-2.5,6.1
			c-1.6,1.6-4.1,2-7.4,2c-2.9,0-5.7-0.8-7.4-2c-1.2-1.2-2.5-3.3-2.5-6.1V0.5h6.1v0.8c0,0.8,0,1.6,0.8,2c0.8,0.8,1.6,0.8,2.5,0.8
			c0.8,0,1.6,0,2.5-0.8s0.8-1.6,0.8-2V0.5h6.1v0.8H217.8z"/>
	</g>
	<g>
		<path d="M359.4,13.6h11.9c3.3,0,7.4,0,11.1,3.7c3.7,3.7,4.1,8.6,4.1,12.7v1.6c0,2.9-0.4,7.8-3.3,11.1c-3.3,3.7-7.4,4.5-10.6,4.5
			H368v21.7h-7.8V13.6H359.4z M367.6,39.8h4.1c1.6,0,3.7-0.4,5.3-2c1.6-1.6,1.6-3.7,1.6-5.7v-3.7c0-2,0-4.5-2-6.1
			c-1.6-1.6-4.1-1.2-6.1-1.2h-2.9L367.6,39.8L367.6,39.8z"/>
		<path d="M402,13.6l7.4,27h0.4c0.4-2.9,1.2-8.2,2-11.1l3.3-15.6h8.2l-9.4,37.2c-1.6,6.1-2.5,13.1-7.4,16c-2.5,1.2-4.5,1.6-6.5,1.6
			h-2.9v-7.8h2c1.6,0,2.9-0.4,3.7-1.2c0.8-0.8,1.2-2.5,1.6-3.3l0.8-4.5L393,14h9V13.6z"/>
		<path d="M449.4,26.3c0-1.2-0.4-2.5-0.8-3.7c-0.4-0.4-1.6-2-4.1-2c-2,0-3.3,0.8-4.1,1.6c-1.2,1.6-1.2,3.7-1.2,5.3v27
			c0,1.6,0,3.3,0.8,4.9c0.4,0.8,1.6,2,4.1,2c1.6,0,3.3-0.8,4.5-2c0.4-0.4,1.2-1.6,1.2-4.5v-2h7.8v2.5c0,5.3-2,8.6-3.3,9.8
			c-1.6,1.6-4.9,3.7-10.2,3.7s-8.2-2-9.8-4.1c-2.9-3.3-2.9-7-2.9-9.8V26.7c0-3.7,0.4-7.8,4.1-10.6c2.5-2,6.1-3.3,9-3.3
			c3.3,0,7,1.2,9.4,3.7c2,2,3.7,5.3,3.7,9v3.7h-7.8v-2.9H449.4z"/>
		<path d="M486.3,26.3c0-1.2-0.4-2.5-0.8-3.7c-0.4-0.4-1.6-2-4.1-2c-2,0-3.3,0.8-4.1,1.6c-1.2,1.6-1.2,3.7-1.2,5.3v27
			c0,1.6,0,3.3,1.2,4.9c0.4,0.8,1.6,2,4.1,2c1.6,0,3.3-0.8,4.5-2c0.4-0.4,1.2-1.6,1.2-4.5v-2h7.8v2.5c0,5.3-2,8.6-3.3,9.8
			c-1.6,1.6-4.9,3.7-10.2,3.7s-8.2-2-9.8-4.1c-2.9-3.3-2.9-7-2.9-9.8V26.7c0-3.7,0.4-7.8,4.1-10.6c2.5-2,6.1-3.3,9-3.3
			c3.3,0,7,1.2,9.4,3.7c2,2,3.7,5.3,3.7,9v3.7h-7.8v-2.9H486.3z"/>
		<path d="M512.5,13.6v23.3h4.5c1.2,0,2-0.4,2.9-1.6c0.8-1.2,1.2-3.3,1.6-7.4l0.4-4.9c0.4-2.9,0.8-6.1,3.3-8.2s5.3-2,7.4-2h1.2v7
			h-0.8c-0.8,0-1.6,0.4-2,0.8c-0.8,0.8-1.2,2.5-1.6,5.7l-0.4,5.3c-0.4,2-0.4,4.1-1.2,5.7c-0.4,1.2-0.8,1.6-1.6,2.5l8.6,28.2H526
			l-7-24.1h-6.1V68h-7.8V13.2h7.4V13.6z"/>
		<path d="M544,27.9c0-4.1,0.4-8.2,4.1-11.9c2.5-2,5.7-3.7,9.8-3.7s7.4,1.2,9.8,3.7c3.7,3.7,4.1,7.4,4.1,11.9v26.2
			c0,4.1-0.4,8.2-4.1,11.9c-2.5,2-5.7,3.7-9.8,3.7s-7.4-1.2-9.8-3.7c-3.7-3.7-4.1-7.4-4.1-11.9V27.9z M563.2,27.1
			c0-1.6,0-3.3-1.6-4.9c-0.8-0.8-2.5-1.6-4.1-1.6c-2,0-3.3,0.8-4.1,1.6c-1.6,1.6-1.6,3.3-1.6,4.9v28.2c0,1.6,0,3.3,1.6,4.9
			c0.8,0.8,2.5,1.6,4.1,1.6c2,0,3.3-0.8,4.1-1.6c1.6-1.6,1.6-3.3,1.6-4.9V27.1z"/>
		<polygon points="582.9,13.6 606.6,13.6 606.6,21 590.6,21 590.6,68.4 582.9,68.4 		"/>
		<path d="M615.6,27.9c0-4.1,0.4-8.2,4.1-11.9c2.5-2,5.7-3.7,9.8-3.7s7.4,1.2,9.8,3.7c3.7,3.7,4.1,7.4,4.1,11.9v26.2
			c0,4.1-0.4,8.2-4.1,11.9c-2.5,2-5.7,3.7-9.8,3.7s-7.4-1.2-9.8-3.7c-3.7-3.7-4.1-7.4-4.1-11.9V27.9z M635.3,27.1
			c0-1.6,0-3.3-1.6-4.9c-0.8-0.8-2.5-1.6-4.1-1.6c-2,0-3.3,0.8-4.1,1.6c-1.6,1.6-1.6,3.3-1.6,4.9v28.2c0,1.6,0,3.3,1.6,4.9
			c0.8,0.8,2.5,1.6,4.1,1.6c2,0,3.3-0.8,4.1-1.6c1.6-1.6,1.6-3.3,1.6-4.9V27.1z"/>
	</g>
	<g>
		<path fill="#A0206A" d="M258.7,182.6c1.6-2.9-2.5-3.3-14.3-2.5c-27.8,1.2-77.4,7.4-118.3,13.1c-61,9-114.2,14.7-115.4,21.7
			c-0.4,2.5,1.6,4.5,4.9,4.5c7.8,0,61-8.6,116.2-17.2C193.7,192,256.7,185.9,258.7,182.6z"/>
		<path fill="#A0206A" d="M810.4,169.5c-0.4-3.7-4.5-12.7-6.1-23.3c-1.2-6.1-1.2-13.1-2-20.1c-0.4-3.7-6.1-2.9-7.4,0.8
			c-3.3,9.4-8.2,24.1-11.9,24.1c-3.3,0-4.5-2.5-4.5-5.7c0-5.3,3.7-13.1,9-17.6c4.5-3.7,6.1-4.9,6.1-6.5c0-1.2-0.8-1.6-2.9-1.6
			c-7.4,0-18,8.6-20.9,21.3c-6.5,7-16,11.9-23.3,11.9c-13.9,0-5.3-34.4-16-34.4c-7,0-8.6,29.1-16.4,29.1c-5.3,0-2.9-31.1-7-31.1
			c-6.1,0-7,7.4-9,15.6c-2.5,8.6-6.5,18.4-11.1,18.4c-3.3,0-2.9-11.5-6.1-11.5c-3.7,0-5.3,4.5-5.3,8.6c0,5.7,2.5,11.9,8.2,11.9
			c6.1,0,11.9-7,17.2-16.8c1.2,8.6,4.5,15.6,10.2,15.6c7,0,13.5-11.1,16-18.4c1.2,9,5.3,20.5,16.8,20.5c9.4,0,18.4-5.3,25-11.9
			c0.4,7.8,3.7,11.5,8.6,11.5c9.8,0,14.3-12.7,15.6-13.5c1.6-1.2,4.9,24.6,15.1,25C810,171.2,810.8,170.3,810.4,169.5z"/>
		<path fill="#A0206A" d="M674.1,131c0-7.4-3.3-11.5-9.8-11.5c-15.6,0-18.8,30.7-27,30.7c-7,0-2-29.9-10.2-29.9
			c-1.6,0-2.9,0.8-3.7,2c-1.6,2.5-10.6,24.1-15.1,25c-1.2-0.4,2.5-15.1,2.5-22.5c0-4.9-1.2-6.1-3.7-6.1c-4.5,0-7,7-7,26.6
			c0,8.6,1.6,13.1,4.5,13.1c8.6,0,16.8-20.5,18.4-20.1c2,0,1.6,20.9,12.7,20.9c12.7,0,17.6-30.3,24.1-30.3c3.3,0,4.5,2.5,4.5,4.9
			c0,4.5-3.7,12.7-6.5,16.8c-0.4,0.4-0.4,2,0,2.5c9,7.4,13.9,20.1,13.9,52.8c0,46.7-16.8,87.2-34,87.2c-3.7,0-6.1-2.5-6.1-8.6
			c0-22.1,13.1-43,29.1-58.9c0.4-0.4-0.4-1.2-2-0.4c-18.4,6.5-37.7,33.2-37.7,56.9c0,11.9,5.7,18,15.6,18
			c30.7,0,47.1-49.9,47.1-97.4c0-42.2-17.6-51.6-17.6-53.6C666.4,148.2,674.1,140.5,674.1,131z"/>
		<path fill="#A0206A" d="M370,160.1c9.4,0,16.4-6.1,19.6-10.2c3.3,6.5,9.4,9.8,17.2,9.8c10.6,0,20.5-5.7,27.4-15.1
			c1.6,7.8,7.4,12.3,16,12.3c7.8,0,16.4-5.3,21.3-10.6c0,8.2,2.5,9.4,4.9,9.4c5.7,0,15.1-9.8,19.6-18l0,0
			c0.4,12.3,7.4,18.8,14.3,18.8c4.9,0,9.4-1.6,13.1-4.1c2.5,3.3,6.1,5.3,10.2,5.3c11.9,0,17.2-11.1,17.2-19.2c0-7.4-2.9-11.1-7-11.1
			c-0.4,0-0.8,0-1.2,0c-0.4,0.4,0.4,23.3-8.2,23.3c-2,0-3.3-2.5-3.3-7.4c0-11.5,4.9-18.8,6.1-20.1c0.8-0.8,0.4-2-1.6-2
			c-6.5,0-15.1,7.8-15.1,20.1c0,2,0.4,4.1,0.8,5.7c-2,1.2-4.1,2-6.5,2c-4.9,0-9.8-2.5-9.4-16.8c0.4-12.7-1.2-14.3-4.1-14.3
			c-3.3,0-5.3,6.1-8.6,13.1c-3.3,7-8.2,14.3-11.5,14.3c-0.4,0-0.4,0-0.4-0.8c0-3.7,4.1-17.6,4.1-22.5c0-1.6-1.2-2.5-2.5-2.5
			c-5.3,0-7.8,9-9,18.8c-4.9,5.3-13.5,10.2-19.6,10.2c-5.3,0-7.8-3.3-7.8-10.2c0-9.4,5.3-20.9,16-20.9c2.5,0,3.7,0.8,4.5,0.8
			s1.2-0.8,1.2-2c0-4.1-3.3-6.1-8.2-6.1c-12.7,0-19.6,12.7-24.1,23.7c-4.1,9.8-13.5,17.2-23.7,17.2c-6.5,0-10.2-4.9-10.2-13.9
			c0-13.1,7.4-24.6,15.6-24.6c6.1,0,7,4.1,9,4.1c1.6,0,2.5-1.6,2.5-3.3c0-5.3-3.7-10.2-11.9-10.2c-15.1,0-27,16.4-27,35.2
			c0,2.5,0.4,4.9,0.8,7.4c-2.9,3.3-9,7.4-15.1,7.4c-5.3,0-8.6-2.5-10.6-6.1c9-9.8,15.6-20.5,15.6-28.6c0-6.5-3.3-10.6-9.4-10.6
			c-7.8,0-18.4,8.2-18.4,28.2c0,4.1,0.8,8.2,1.6,11.5c-9,8.6-19.6,15.1-24.1,15.1c-3.3,0-0.8-8.6-0.8-17.6c0-12.7-3.3-17.6-9.8-17.6
			c-9.8,0-18.4,9.8-25.8,24.1c-0.8-9.4-1.6-18-2-26.6C306.2,102,314,70.1,314,38.6c0-20.1-4.9-38.5-16.8-38.5
			c-13.9,0-20.1,22.1-20.1,60.6c0,19.6,1.2,41.3,3.3,63.8c-11.5,16.8-26.2,26.2-40.5,26.2c-10.2,0-3.7-29.5-16-29.5
			c-5.3,0-9.8,6.1-13.9,15.1c-0.4-9-0.8-15.6-4.5-15.6c-2.9,0-4.5,2-5.3,7c-4.1,16.4-21.3,28.2-35.6,28.2
			c-13.9,0-15.6-13.9-15.6-23.7c0-9.4,1.2-14.3,1.2-19.2c0-3.7-1.2-6.5-4.9-6.5c-7.4,0-8.2,10.2-12.3,20.1
			c-4.9,13.1-10.2,20.1-13.1,20.1c-4.9,0-4.5-21.7-4.5-30.7c0-5.3-1.6-7.4-4.1-7.4c-8.2,0-7.4,15.1-11.9,27
			c-2.5,7.4-7.4,13.9-11.1,13.9c-4.5,0,0.8-18.4-6.1-18.4c-4.5,0-17.6,20.5-30.7,20.5c-10.2,0-10.2-35.2-20.1-35.2
			c-7.4,0-11.1,33.6-19.2,33.6c-2,0-4.1-4.1,2.5-31.1c0.4-2-0.8-2.5-2-2.5c-5.7,0-12.3,15.1-12.3,27.8c0,11.1,3.7,17.6,9,17.6
			c12.7,0,18.8-23.3,20.5-23.3c2,0,5.7,22.5,18.8,22.5c10.2,0,19.6-9,27.4-16.4c0,1.2,0,2.5,0,3.7c0,9,3.3,13.9,7.8,13.9
			c7.4,0,15.1-7.8,20.9-18c2,9.8,4.9,17.2,10.6,17.2c9,0,17.2-14.7,21.7-24.6c0,11.5,3.7,29.1,22.1,29.1c17.2,0,31.5-9.8,41.7-23.7
			c0.4,10.6,1.6,15.6,5.3,15.6c4.1,0,9-22.5,13.1-22.5c4.9,0,1.2,23.7,17.6,23.7c17.2,0,31.9-7.8,43.4-20.5
			c1.2,11.1,2,22.5,3.3,33.6c-3.7,10.2-7.4,21.3-10.2,31.9c-10.2,34.4-15.1,62.2-15.1,99.9c0,35.2,9.8,51.2,20.5,51.2
			c15.1,0,25.4-22.5,25.4-74.9c0-33.2-7-73.7-10.2-109.7v-0.4c7.4-18,14.7-28.6,18.8-28.6c8.6,0-4.5,32.7,11.1,32.7
			c7.4,0,20.9-8.2,32.3-18.8C358.2,157.2,363.5,160.1,370,160.1z M286.6,59.8c0-32.7,4.1-47.5,7.8-47.5c4.1,0,6.5,14.3,6.5,26.6
			c0,25.4-4.9,47.9-13.1,65.9C287,91.3,286.6,77,286.6,59.8z M290.6,275.1c0,37.7-3.7,65.9-12.7,65.9c-6.5,0-10.2-15.6-10.2-42.2
			c0-42.2,7.4-80.6,16.4-109.3C287.4,221.1,290.6,250.1,290.6,275.1z M365.5,116.3c1.2,0,2,0.8,2,2.5c0,5.3-3.3,12.3-8.2,18.4
			c0-1.6-0.4-2.9-0.4-4.5C359,124.1,361.9,116.3,365.5,116.3z"/>
		<path fill="#A0206A" d="M586.5,119.2c-2.9,0-4.5,3.3-4.9,8.6c-0.4,3.7,0,9.4-3.7,11.9c-0.8,0.4-8.6,3.3-11.9,6.5
			c-0.8-10.2-0.8-23.3-5.3-23.3c-3.3,0-4.9,4.9-4.9,11.5c0,9,1.6,25.8,3.7,33.6c-124.4,4.5-189.5,12.7-224.7,18
			c-3.3,0.4-4.9,1.2-4.9,2.9c0,2,2.9,4.5,15.6,3.3c59.3-5.7,135.5-17.2,249.7-17.6c2.5,0,2-4.9,0.4-7.4
			C589,151.9,594.7,119.2,586.5,119.2z M582.5,147c0,0,1.2,12.3,4.5,20.1c-6.5,0-12.7,0.4-18.8,0.4
			C566.5,150.7,579.2,149.1,582.5,147z"/>
	</g>
</g>
</svg>
